Three more scoops of ggplot2
…
---

We will work on a simple chart with a basic dataset.

```r
library(ggplot2)
library(magrittr)
library(dplyr)

data <- readRDS("questions_per_week.Rds")
data
```

```
## # A tibble: 42 x 3
##    Week       Assignee   `# of questions`
##    <date>     <fct>                 <int>
##  1 2018-01-15 Bob                      13
##  2 2018-01-15 Alice                     0
##  3 2018-01-15 Unassigned                0
##  4 2018-01-22 Bob                      16
##  5 2018-01-22 Alice                     2
##  6 2018-01-22 Unassigned                0
##  7 2018-01-29 Bob                      13
##  8 2018-01-29 Alice                     0
##  9 2018-01-29 Unassigned                0
## 10 2018-02-05 Bob                       4
## # ... with 32 more rows
```
…
